<?xml version="1.0" encoding="UTF-8" standalone="no"?>
<svg id="svg" xmlns="http://www.w3.org/2000/svg" display="block" height="500" width="575" version="1.1" xmlns:xlink="http://www.w3.org/1999/xlink">
 <g id="svgg" fill-rule="evenodd" fill="#fff">
  <path id="path0" d="m292.27 136.35c0 0.57 0.27 1.67 0.6 2.43 0.38 0.88 0.6 1.01 0.6 0.35 0-0.57-0.27-1.67-0.6-2.43-0.38-0.88-0.6-1.01-0.6-0.35m-32.63 4.17c0 1.34 0.14 1.89 0.32 1.22 0.17-0.67 0.17-1.77 0-2.44-0.18-0.66-0.32-0.12-0.32 1.22m33.38 5.9c0.27 0.3 0.17 1.16-0.23 1.9-0.4 0.75-0.6 1.5-0.44 1.66s0.65-0.49 1.08-1.43c0.59-1.3 0.57-1.83-0.07-2.2-0.46-0.27-0.61-0.24-0.34 0.07m-22.64 41.93c17.67 0.1 46.78 0.1 64.7 0 17.91-0.11 3.46-0.19-32.12-0.19-35.59 0-50.24 0.08-32.58 0.19m100.7 134.95c-1.59 2.14-1.66 2.36-0.36 1.23 1.51-1.32 3.22-3.83 2.6-3.83-0.16 0-1.16 1.17-2.24 2.6m-251.55 18.79c39.54 0.1 104.03 0.1 143.31 0s6.93-0.18-71.88-0.18c-78.82 0-110.96 0.08-71.43 0.18"/>
  <path id="path1" d="m41.664 10.742c-0.173 0.173-1.245 0.485-2.381 0.692-1.136 0.208-2.759 0.517-3.607 0.688-4.957 0.999-20.246 9.851-20.342 11.778-0.016 0.327-0.796 1.199-1.734 1.936-2.436 1.916-7.65 10.601-9.547 15.903l-1.618 4.522-0.194 128c-0.215 142.17-0.503 132.88 4.43 142.89 1.337 2.72 2.783 4.94 3.213 4.94 0.431 0 0.585 0.19 0.343 0.44-0.799 0.8 7.426 8.69 12.678 12.17 4.688 3.1 10.821 5.53 16.399 6.5 2.72 0.47 300.46 0.45 303.66-0.02 4.01-0.59 12.52-3.75 12.52-4.65 0-0.29 0.23-0.46 0.52-0.37 4.2 1.3 17.79-14.64 21.68-25.42l1.8-5 0.2-48.14c0.2-47.55 0.22-48.14 1.6-48.58 5.09-1.61 12.97-11.95 14.46-18.97 1.24-5.83 1.06-89.11-0.2-93.837-1.9-7.147-6.91-13.859-13.1-17.553l-2.61-1.556-0.07-9.856c-0.12-20.168-1.58-26.859-7.91-36.25-5.96-8.843-11.25-12.917-23.33-17.963-1.78-0.743-2.04-0.816-6.26-1.697-2.59-0.541-300.06-1.131-300.6-0.596m303.15 26.576c8.26 3.921 10.84 9.694 11.22 25.117l0.3 12-61.64 0.087c-33.91 0.048-61.88 0.139-62.17 0.203-6.66 1.489-15.17 7.283-17.92 12.198-2.71 4.852-4.57 9.463-4.28 10.595 0.18 0.695 0.06 1.433-0.28 1.64-0.34 0.209-0.61 19.472-0.61 43.302 0.01 49-0.13 47.49 5.19 56.48 1.91 3.22 4.89 6.21 8.18 8.21 7.45 4.51 4.42 4.33 71.98 4.32l61.39-0.01v42.76c0 51.3 0.07 50.8-7.95 58.31-6.32 5.93 9.04 5.42-158.52 5.21l-148.31-0.18-3.277-1.67c-4.241-2.17-8.549-6.46-10.488-10.46l-1.538-3.17v-125.91-125.92l1.653-3.652c1.798-3.977 4.451-6.648 9.624-9.689l3.332-1.959 147.47-0.347c153.95-0.363 150.41-0.421 156.64 2.535m26.38 62.467c1.07 1.475 1.51 84.785 0.45 86.375-1.54 2.31-3.09 2.36-69.3 2.18-58.36-0.15-65.89-0.29-66.85-1.25-1.77-1.76-1.62-86.68 0.15-88.033 2.29-1.746 134.26-1.037 135.55 0.728m-97.45 26.785c-10.48 1.79-16.61 13.48-12.24 23.36 7.46 16.87 30.84 12 32.1-6.67 0.09-1.32-0.09-3.02-0.39-3.78-0.3-0.77-0.92-2.33-1.38-3.48-2.7-6.75-10.38-10.75-18.09-9.43"/>
  <path id="path2" d="m267.3 74.261c16.36 0.104 43.13 0.104 59.48 0 16.36-0.104 2.98-0.189-29.74-0.189-32.71 0-46.09 0.085-29.74 0.189m120.87 8.869c1.3 1.34 2.52 2.435 2.71 2.435s-0.71-1.095-2.01-2.435c-1.3-1.339-2.52-2.434-2.71-2.434s0.72 1.095 2.01 2.434"/>
  <path id="path3" d="m268.05 212c16.39 0.1 43 0.1 59.13 0 16.14-0.1 2.73-0.19-29.79-0.19s-45.72 0.09-29.34 0.19"/>
 </g>
</svg>
